TP Ecologie Biodiversité Montmaur
…
Make a pipeline to select rows and columns:

montmaur %>%
  # Filter the north face
  filter(versant == "N") %>% 
  # Select species columns
  select(!(Groupe:rec_espece_dominante_arboree)) %>% 
  # Eliminate absent species
  select(where(~ sum(.x) != 0))

## # A tibble: 36 × 152
##    Arbutus_unedo Asparagus_acutifolius Brachypodium_retusum Clematis_sp
##            <dbl>                 <dbl>                <dbl>       <dbl>
##  1          0                    0                    0.15            0
##  2          0                    0                    0               0
##  3          0                    0                    0.375           0
##  4          0                    0                    0               0
##  5          0                    0                    0               0
##  6          0                    0                    0               0
##  7          0                    0.005                0               0
##  8          0.15                 0.005                0.01            0
##  9          0                    0.01                 0               0
## 10          0                    0.01                 0               0
## # ℹ 26 more rows
## # ℹ 148 more variables: Geranium_sp <dbl>, Pinus_halepensis <dbl>,
## #   Quercus_coccifera <dbl>, Quercus_ilex <dbl>, Quercus_pubescens <dbl>,
## #   Rhamnus_alaternus <dbl>, Rubia_peregrina <dbl>, Ruscus_aculeatus <dbl>,
## #   Smilax_aspera <dbl>, Taraxacum_officinale <dbl>, Viburnum_tinus <dbl>,
## #   Celtis_australis <dbl>, Clematis_flammula <dbl>, Hedera_helix <dbl>,
## #   Pistacia_terebinthus <dbl>, Carex_humilis <dbl>, …
…
